test1_ymq/tst1_ymq38/simulation/qsim/tst1_38.msim.vcd
$comment
	File created using the following command:
		vcd file tst1_38.msim.vcd -direction
$end
$date
	Mon May 16 17:36:54 2022
$end
$version
	ModelSim Version 10.1d
$end
$timescale
	1ps
$end
$scope module tst1_38_vlg_vec_tst $end
$var reg 1 ! a $end
$var reg 1 " b $end
$var reg 1 # c $end
$var wire 1 $ Y0 $end
$var wire 1 % Y1 $end
$var wire 1 & Y2 $end
$var wire 1 ' Y3 $end
$var wire 1 ( Y4 $end
$var wire 1 ) Y5 $end
$var wire 1 * Y6 $end
$var wire 1 + Y7 $end
$var wire 1 , sampler $end
$scope module i1 $end
$var wire 1 - gnd $end
$var wire 1 . vcc $end
$var wire 1 / unknown $end
$var tri1 1 0 devclrn $end
$var tri1 1 1 devpor $end
$var tri1 1 2 devoe $end
$var wire 1 3 Y1~output_o $end
$var wire 1 4 Y2~output_o $end
$var wire 1 5 Y4~output_o $end
$var wire 1 6 Y3~output_o $end
$var wire 1 7 Y5~output_o $end
$var wire 1 8 Y6~output_o $end
$var wire 1 9 Y7~output_o $end
$var wire 1 : Y0~output_o $end
$var wire 1 ; a~input_o $end
$var wire 1 < b~input_o $end
$var wire 1 = c~input_o $end
$var wire 1 > inst|15~0_combout $end
$var wire 1 ? inst|15~1_combout $end
$var wire 1 @ inst|15~2_combout $end
$var wire 1 A inst|15~3_combout $end
$var wire 1 B inst|15~4_combout $end
$var wire 1 C inst|15~5_combout $end
$var wire 1 D inst|15~6_combout $end
$var wire 1 E inst|15~7_combout $end
$upscope $end
$upscope $end
$enddefinitions $end
#0
$dumpvars
0!
0"
0#
0$
1%
1&
1'
1(
1)
1*
1+
x,
0-
1.
x/
10
11
12
13
14
15
16
17
18
19
0:
0;
0<
0=
0>
0?
0@
0A
0B
0C
0D
1E
$end
#50000
1!
1;
0,
0E
1>
1:
03
1$
0%
#100000
1"
0!
1<
0;
1,
1?
0>
04
13
0&
1%
#150000
1!
1;
0,
1A
0?
06
14
0'
1&
#200000
1#
0"
0!
1=
0<
0;
1,
0A
1@
16
05
1'
0(
#250000
1!
1;
0,
1B
0@
07
15
0)
1(
#300000
1"
0!
1<
0;
1,
1C
0B
08
17
0*
1)
#350000
1!
1;
0,
1D
0C
09
18
0+
1*
#400000
0#
0"
0!
0=
0<
0;
1,
1E
0D
0:
19
0$
1+
#450000
1!
1;
0,
0E
1>
1:
03
1$
0%
#500000
1"
0!
1<
0;
1,
1?
0>
04
13
0&
1%
#550000
1!
1;
0,
1A
0?
06
14
0'
1&
#600000
1#
0"
0!
1=
0<
0;
1,
0A
1@
16
05
1'
0(
#650000
1!
1;
0,
1B
0@
07
15
0)
1(
#700000
1"
0!
1<
0;
1,
1C
0B
08
17
0*
1)
#750000
1!
1;
0,
1D
0C
09
18
0+
1*
#800000
0#
0"
0!
0=
0<
0;
1,
1E
0D
0:
19
0$
1+
#850000
1!
1;
0,
0E
1>
1:
03
1$
0%
#900000
1"
0!
1<
0;
1,
1?
0>
04
13
0&
1%
#950000
1!
1;
0,
1A
0?
06
14
0'
1&
