test4_lpm_rom/tst4_lpm_rom3/simulation/qsim/aa.msim.vcd
$comment
	File created using the following command:
		vcd file aa.msim.vcd -direction
$end
$date
	Mon May 16 14:57:42 2022
$end
$version
	ModelSim Version 10.1d
$end
$timescale
	1ps
$end
$scope module u_addr_vlg_vec_tst $end
$var reg 1 ! clk $end
$var wire 1 " out_addr [5] $end
$var wire 1 # out_addr [4] $end
$var wire 1 $ out_addr [3] $end
$var wire 1 % out_addr [2] $end
$var wire 1 & out_addr [1] $end
$var wire 1 ' out_addr [0] $end
$var wire 1 ( sampler $end
$scope module i1 $end
$var wire 1 ) gnd $end
$var wire 1 * vcc $end
$var wire 1 + unknown $end
$var tri1 1 , devclrn $end
$var tri1 1 - devpor $end
$var tri1 1 . devoe $end
$var wire 1 / out_addr[0]~output_o $end
$var wire 1 0 out_addr[1]~output_o $end
$var wire 1 1 out_addr[2]~output_o $end
$var wire 1 2 out_addr[3]~output_o $end
$var wire 1 3 out_addr[4]~output_o $end
$var wire 1 4 out_addr[5]~output_o $end
$var wire 1 5 clk~input_o $end
$var wire 1 6 clk~inputclkctrl_outclk $end
$var wire 1 7 count[0]~15_combout $end
$var wire 1 8 count[1]~5_combout $end
$var wire 1 9 count[1]~6 $end
$var wire 1 : count[2]~7_combout $end
$var wire 1 ; count[2]~8 $end
$var wire 1 < count[3]~9_combout $end
$var wire 1 = count[3]~10 $end
$var wire 1 > count[4]~11_combout $end
$var wire 1 ? count[4]~12 $end
$var wire 1 @ count[5]~13_combout $end
$var wire 1 A count [5] $end
$var wire 1 B count [4] $end
$var wire 1 C count [3] $end
$var wire 1 D count [2] $end
$var wire 1 E count [1] $end
$var wire 1 F count [0] $end
$upscope $end
$upscope $end
$enddefinitions $end
#0
$dumpvars
0!
0'
0&
0%
0$
0#
0"
x(
0)
1*
x+
1,
1-
1.
0/
00
01
02
03
04
05
06
17
08
09
0:
1;
0<
0=
0>
1?
0@
0F
0E
0D
0C
0B
0A
$end
#5000
1!
15
16
0(
1F
18
07
1/
1'
#10000
0!
05
06
1(
#15000
1!
15
16
0(
1E
0F
17
10
0/
1&
0'
#20000
0!
05
06
1(
#25000
1!
15
16
0(
1F
19
08
07
1/
1'
1:
#30000
0!
05
06
1(
#35000
1!
15
16
0(
1D
0E
0F
0;
0:
09
17
11
00
0/
1%
0&
0'
1<
1;
1:
0<
#40000
0!
05
06
1(
#45000
1!
15
16
0(
1F
18
07
1/
1'
#50000
0!
05
06
1(
#55000
1!
15
16
0(
1E
0F
17
10
0/
1&
0'
#60000
0!
05
06
1(
#65000
1!
15
16
0(
1F
19
08
07
1/
1'
0;
0:
1<
#70000
0!
05
06
1(
#75000
1!
15
16
0(
1C
0D
0E
0F
1=
0<
1;
1:
09
17
12
01
00
0/
1$
0%
0&
0'
1>
0=
1<
0:
0>
#80000
0!
05
06
1(
#85000
1!
15
16
0(
1F
18
07
1/
1'
#90000
0!
05
06
1(
#95000
1!
15
16
0(
1E
0F
17
10
0/
1&
0'
#100000
0!
05
06
1(
#105000
1!
15
16
0(
1F
19
08
07
1/
1'
1:
#110000
0!
05
06
1(
#115000
1!
15
16
0(
1D
0E
0F
0;
0:
09
17
11
00
0/
1%
0&
0'
1=
0<
1;
1:
1>
0=
1<
0>
#120000
0!
05
06
1(
#125000
1!
15
16
0(
1F
18
07
1/
1'
#130000
0!
05
06
1(
#135000
1!
15
16
0(
1E
0F
17
10
0/
1&
0'
#140000
0!
05
06
1(
#145000
1!
15
16
0(
1F
19
08
07
1/
1'
0;
0:
1=
0<
1>
#150000
0!
05
06
1(
#155000
1!
15
16
0(
1B
0C
0D
0E
0F
0?
0>
0=
1<
1;
1:
09
17
13
02
01
00
0/
1#
0$
0%
0&
0'
1@
1?
1>
0<
0:
0@
#160000
0!
05
06
1(
#165000
1!
15
16
0(
1F
18
07
1/
1'
#170000
0!
05
06
1(
#175000
1!
15
16
0(
1E
0F
17
10
0/
1&
0'
#180000
0!
05
06
1(
#185000
1!
15
16
0(
1F
19
08
07
1/
1'
1:
#190000
0!
05
06
1(
#195000
1!
15
16
0(
1D
0E
0F
0;
0:
09
17
11
00
0/
1%
0&
0'
1<
1;
1:
0<
#200000
0!
05
06
1(
#205000
1!
15
16
0(
1F
18
07
1/
1'
#210000
0!
05
06
1(
#215000
1!
15
16
0(
1E
0F
17
10
0/
1&
0'
#220000
0!
05
06
1(
#225000
1!
15
16
0(
1F
19
08
07
1/
1'
0;
0:
1<
#230000
0!
05
06
1(
#235000
1!
15
16
0(
1C
0D
0E
0F
1=
0<
1;
1:
09
17
12
01
00
0/
1$
0%
0&
0'
0?
0>
0=
1<
0:
1@
1?
1>
0@
#240000
0!
05
06
1(
#245000
1!
15
16
0(
1F
18
07
1/
1'
#250000
0!
05
06
1(
#255000
1!
15
16
0(
1E
0F
17
10
0/
1&
0'
#260000
0!
05
06
1(
#265000
1!
15
16
0(
1F
19
08
07
1/
1'
1:
#270000
0!
05
06
1(
#275000
1!
15
16
0(
1D
0E
0F
0;
0:
09
17
11
00
0/
1%
0&
0'
1=
0<
1;
1:
0?
0>
0=
1<
1@
1?
1>
0@
#280000
0!
05
06
1(
#285000
1!
15
16
0(
1F
18
07
1/
1'
#290000
0!
05
06
1(
#295000
1!
15
16
0(
1E
0F
17
10
0/
1&
0'
#300000
0!
05
06
1(
#305000
1!
15
16
0(
1F
19
08
07
1/
1'
0;
0:
1=
0<
0?
0>
1@
#310000
0!
05
06
1(
#315000
1!
15
16
0(
1A
0B
0C
0D
0E
0F
0@
1?
1>
0=
1<
1;
1:
09
17
14
03
02
01
00
0/
1"
0#
0$
0%
0&
0'
1@
0>
0<
0:
#320000
0!
05
06
1(
#325000
1!
15
16
0(
1F
18
07
1/
1'
#330000
0!
05
06
1(
#335000
1!
15
16
0(
1E
0F
17
10
0/
1&
0'
#340000
0!
05
06
1(
#345000
1!
15
16
0(
1F
19
08
07
1/
1'
1:
#350000
0!
05
06
1(
#355000
1!
15
16
0(
1D
0E
0F
0;
0:
09
17
11
00
0/
1%
0&
0'
1<
1;
1:
0<
#360000
0!
05
06
1(
#365000
1!
15
16
0(
1F
18
07
1/
1'
#370000
0!
05
06
1(
#375000
1!
15
16
0(
1E
0F
17
10
0/
1&
0'
#380000
0!
05
06
1(
#385000
1!
15
16
0(
1F
19
08
07
1/
1'
0;
0:
1<
#390000
0!
05
06
1(
#395000
1!
15
16
0(
1C
0D
0E
0F
1=
0<
1;
1:
09
17
12
01
00
0/
1$
0%
0&
0'
1>
0=
1<
0:
0>
#400000
0!
05
06
1(
#405000
1!
15
16
0(
1F
18
07
1/
1'
#410000
0!
05
06
1(
#415000
1!
15
16
0(
1E
0F
17
10
0/
1&
0'
#420000
0!
05
06
1(
#425000
1!
15
16
0(
1F
19
08
07
1/
1'
1:
#430000
0!
05
06
1(
#435000
1!
15
16
0(
1D
0E
0F
0;
0:
09
17
11
00
0/
1%
0&
0'
1=
0<
1;
1:
1>
0=
1<
0>
#440000
0!
05
06
1(
#445000
1!
15
16
0(
1F
18
07
1/
1'
#450000
0!
05
06
1(
#455000
1!
15
16
0(
1E
0F
17
10
0/
1&
0'
#460000
0!
05
06
1(
#465000
1!
15
16
0(
1F
19
08
07
1/
1'
0;
0:
1=
0<
1>
#470000
0!
05
06
1(
#475000
1!
15
16
0(
1B
0C
0D
0E
0F
0?
0>
0=
1<
1;
1:
09
17
13
02
01
00
0/
1#
0$
0%
0&
0'
0@
1?
1>
0<
0:
1@
#480000
0!
05
06
1(
#485000
1!
15
16
0(
1F
18
07
1/
1'
#490000
0!
05
06
1(
#495000
1!
15
16
0(
1E
0F
17
10
0/
1&
0'
#500000
0!
05
06
1(
#505000
1!
15
16
0(
1F
19
08
07
1/
1'
1:
#510000
0!
05
06
1(
#515000
1!
15
16
0(
1D
0E
0F
0;
0:
09
17
11
00
0/
1%
0&
0'
1<
1;
1:
0<
#520000
0!
05
06
1(
#525000
1!
15
16
0(
1F
18
07
1/
1'
#530000
0!
05
06
1(
#535000
1!
15
16
0(
1E
0F
17
10
0/
1&
0'
#540000
0!
05
06
1(
#545000
1!
15
16
0(
1F
19
08
07
1/
1'
0;
0:
1<
#550000
0!
05
06
1(
#555000
1!
15
16
0(
1C
0D
0E
0F
1=
0<
1;
1:
09
17
12
01
00
0/
1$
0%
0&
0'
0?
0>
0=
1<
0:
0@
1?
1>
1@
#560000
0!
05
06
1(
#565000
1!
15
16
0(
1F
18
07
1/
1'
#570000
0!
05
06
1(
#575000
1!
15
16
0(
1E
0F
17
10
0/
1&
0'
#580000
0!
05
06
1(
#585000
1!
15
16
0(
1F
19
08
07
1/
1'
1:
#590000
0!
05
06
1(
#595000
1!
15
16
0(
1D
0E
0F
0;
0:
09
17
11
00
0/
1%
0&
0'
1=
0<
1;
1:
0?
0>
0=
1<
0@
1?
1>
1@
#600000
0!
05
06
1(
#605000
1!
15
16
0(
1F
18
07
1/
1'
#610000
0!
05
06
1(
#615000
1!
15
16
0(
1E
0F
17
10
0/
1&
0'
#620000
0!
05
06
1(
#625000
1!
15
16
0(
1F
19
08
07
1/
1'
0;
0:
1=
0<
0?
0>
0@
#630000
0!
05
06
1(
#635000
1!
15
16
0(
0A
0B
0C
0D
0E
0F
1@
1?
1>
0=
1<
1;
1:
09
17
04
03
02
01
00
0/
0"
0#
0$
0%
0&
0'
0@
0>
0<
0:
#640000
0!
05
06
1(
#645000
1!
15
16
0(
1F
18
07
1/
1'
#650000
0!
05
06
1(
#655000
1!
15
16
0(
1E
0F
17
10
0/
1&
0'
#660000
0!
05
06
1(
#665000
1!
15
16
0(
1F
19
08
07
1/
1'
1:
#670000
0!
05
06
1(
#675000
1!
15
16
0(
1D
0E
0F
0;
0:
09
17
11
00
0/
1%
0&
0'
1<
1;
1:
0<
#680000
0!
05
06
1(
#685000
1!
15
16
0(
1F
18
07
1/
1'
#690000
0!
05
06
1(
#695000
1!
15
16
0(
1E
0F
17
10
0/
1&
0'
#700000
0!
05
06
1(
#705000
1!
15
16
0(
1F
19
08
07
1/
1'
0;
0:
1<
#710000
0!
05
06
1(
#715000
1!
15
16
0(
1C
0D
0E
0F
1=
0<
1;
1:
09
17
12
01
00
0/
1$
0%
0&
0'
1>
0=
1<
0:
0>
#720000
0!
05
06
1(
#725000
1!
15
16
0(
1F
18
07
1/
1'
#730000
0!
05
06
1(
#735000
1!
15
16
0(
1E
0F
17
10
0/
1&
0'
#740000
0!
05
06
1(
#745000
1!
15
16
0(
1F
19
08
07
1/
1'
1:
#750000
0!
05
06
1(
#755000
1!
15
16
0(
1D
0E
0F
0;
0:
09
17
11
00
0/
1%
0&
0'
1=
0<
1;
1:
1>
0=
1<
0>
#760000
0!
05
06
1(
#765000
1!
15
16
0(
1F
18
07
1/
1'
#770000
0!
05
06
1(
#775000
1!
15
16
0(
1E
0F
17
10
0/
1&
0'
#780000
0!
05
06
1(
#785000
1!
15
16
0(
1F
19
08
07
1/
1'
0;
0:
1=
0<
1>
#790000
0!
05
06
1(
#795000
1!
15
16
0(
1B
0C
0D
0E
0F
0?
0>
0=
1<
1;
1:
09
17
13
02
01
00
0/
1#
0$
0%
0&
0'
1@
1?
1>
0<
0:
0@
#800000
0!
05
06
1(
#805000
1!
15
16
0(
1F
18
07
1/
1'
#810000
0!
05
06
1(
#815000
1!
15
16
0(
1E
0F
17
10
0/
1&
0'
#820000
0!
05
06
1(
#825000
1!
15
16
0(
1F
19
08
07
1/
1'
1:
#830000
0!
05
06
1(
#835000
1!
15
16
0(
1D
0E
0F
0;
0:
09
17
11
00
0/
1%
0&
0'
1<
1;
1:
0<
#840000
0!
05
06
1(
#845000
1!
15
16
0(
1F
18
07
1/
1'
#850000
0!
05
06
1(
#855000
1!
15
16
0(
1E
0F
17
10
0/
1&
0'
#860000
0!
05
06
1(
#865000
1!
15
16
0(
1F
19
08
07
1/
1'
0;
0:
1<
#870000
0!
05
06
1(
#875000
1!
15
16
0(
1C
0D
0E
0F
1=
0<
1;
1:
09
17
12
01
00
0/
1$
0%
0&
0'
0?
0>
0=
1<
0:
1@
1?
1>
0@
#880000
0!
05
06
1(
#885000
1!
15
16
0(
1F
18
07
1/
1'
#890000
0!
05
06
1(
#895000
1!
15
16
0(
1E
0F
17
10
0/
1&
0'
#900000
0!
05
06
1(
#905000
1!
15
16
0(
1F
19
08
07
1/
1'
1:
#910000
0!
05
06
1(
#915000
1!
15
16
0(
1D
0E
0F
0;
0:
09
17
11
00
0/
1%
0&
0'
1=
0<
1;
1:
0?
0>
0=
1<
1@
1?
1>
0@
#920000
0!
05
06
1(
#925000
1!
15
16
0(
1F
18
07
1/
1'
#930000
0!
05
06
1(
#935000
1!
15
16
0(
1E
0F
17
10
0/
1&
0'
#940000
0!
05
06
1(
#945000
1!
15
16
0(
1F
19
08
07
1/
1'
0;
0:
1=
0<
0?
0>
1@
#950000
0!
05
06
1(
#955000
1!
15
16
0(
1A
0B
0C
0D
0E
0F
0@
1?
1>
0=
1<
1;
1:
09
17
14
03
02
01
00
0/
1"
0#
0$
0%
0&
0'
1@
0>
0<
0:
#960000
0!
05
06
1(
#965000
1!
15
16
0(
1F
18
07
1/
1'
#970000
0!
05
06
1(
#975000
1!
15
16
0(
1E
0F
17
10
0/
1&
0'
#980000
0!
05
06
1(
#985000
1!
15
16
0(
1F
19
08
07
1/
1'
1:
#990000
0!
05
06
1(
#995000
1!
15
16
0(
1D
0E
0F
0;
0:
09
17
11
00
0/
1%
0&
0'
1<
1;
1:
0<
