test2_smg/tst2_smg3/simulation/qsim/tst2.msim.vcd
$comment
	File created using the following command:
		vcd file tst2.msim.vcd -direction
$end
$date
	Fri May 20 20:45:09 2022
$end
$version
	ModelSim Version 10.1d
$end
$timescale
	1ps
$end
$scope module tst2_vlg_vec_tst $end
$var reg 1 ! rst $end
$var reg 1 " sys_clk $end
$var wire 1 # count [3] $end
$var wire 1 $ count [2] $end
$var wire 1 % count [1] $end
$var wire 1 & count [0] $end
$var wire 1 ' LED8s [7] $end
$var wire 1 ( LED8s [6] $end
$var wire 1 ) LED8s [5] $end
$var wire 1 * LED8s [4] $end
$var wire 1 + LED8s [3] $end
$var wire 1 , LED8s [2] $end
$var wire 1 - LED8s [1] $end
$var wire 1 . LED8s [0] $end
$var wire 1 / SEL [2] $end
$var wire 1 0 SEL [1] $end
$var wire 1 1 SEL [0] $end
$var wire 1 2 sampler $end
$scope module i1 $end
$var wire 1 3 gnd $end
$var wire 1 4 vcc $end
$var wire 1 5 unknown $end
$var tri1 1 6 devclrn $end
$var tri1 1 7 devpor $end
$var tri1 1 8 devoe $end
$var wire 1 9 count[3]~output_o $end
$var wire 1 : count[2]~output_o $end
$var wire 1 ; count[1]~output_o $end
$var wire 1 < count[0]~output_o $end
$var wire 1 = LED8s[7]~output_o $end
$var wire 1 > LED8s[6]~output_o $end
$var wire 1 ? LED8s[5]~output_o $end
$var wire 1 @ LED8s[4]~output_o $end
$var wire 1 A LED8s[3]~output_o $end
$var wire 1 B LED8s[2]~output_o $end
$var wire 1 C LED8s[1]~output_o $end
$var wire 1 D LED8s[0]~output_o $end
$var wire 1 E SEL[2]~output_o $end
$var wire 1 F SEL[1]~output_o $end
$var wire 1 G SEL[0]~output_o $end
$var wire 1 H sys_clk~input_o $end
$var wire 1 I sys_clk~inputclkctrl_outclk $end
$var wire 1 J cnt|count~2_combout $end
$var wire 1 K rst~input_o $end
$var wire 1 L rst~inputclkctrl_outclk $end
$var wire 1 M cnt|count~1_combout $end
$var wire 1 N cnt|count~3_combout $end
$var wire 1 O cnt|count~0_combout $end
$var wire 1 P cnt|LED8s[6]~0_combout $end
$var wire 1 Q cnt|LED8s[5]~1_combout $end
$var wire 1 R cnt|LED8s[4]~2_combout $end
$var wire 1 S cnt|LED8s[3]~3_combout $end
$var wire 1 T cnt|LED8s[2]~4_combout $end
$var wire 1 U cnt|LED8s[1]~5_combout $end
$var wire 1 V cnt|LED8s[0]~6_combout $end
$var wire 1 W cnt|SE[0]~2_combout $end
$var wire 1 X cnt|SE[1]~1_combout $end
$var wire 1 Y cnt|SE[2]~0_combout $end
$var wire 1 Z cnt|SE [2] $end
$var wire 1 [ cnt|SE [1] $end
$var wire 1 \ cnt|SE [0] $end
$var wire 1 ] cnt|count [3] $end
$var wire 1 ^ cnt|count [2] $end
$var wire 1 _ cnt|count [1] $end
$var wire 1 ` cnt|count [0] $end
$upscope $end
$upscope $end
$enddefinitions $end
#0
$dumpvars
1!
0"
0&
0%
0$
0#
1.
1-
1,
1+
1*
1)
0(
0'
01
00
0/
x2
03
14
x5
16
17
18
09
0:
0;
0<
0=
0>
1?
1@
1A
1B
1C
1D
0E
0F
0G
0H
0I
0J
1K
1L
0M
1N
0O
0P
1Q
1R
0S
1T
0U
1V
1W
0X
0Y
0\
0[
0Z
0`
0_
0^
0]
$end
#25000
1"
1H
1I
02
1\
1`
1X
0W
1S
0N
1J
1G
1<
11
1&
0V
0R
0Q
0A
0D
0@
0?
0+
0.
0*
0)
#50000
0"
0H
0I
12
#75000
1"
1H
1I
02
1[
0\
0`
1_
1W
0S
1N
1F
0G
0<
1;
10
01
0&
1%
1V
0T
1R
1P
1A
1D
0B
1@
1>
1+
1.
0,
1*
1(
#100000
0"
0H
0I
12
#125000
1"
1H
1I
02
1\
1`
1Y
0X
0W
0N
1M
0J
1G
1<
11
1&
1T
0R
1B
0@
1,
0*
#150000
0"
0H
0I
12
#175000
1"
1H
1I
02
1Z
0[
0\
0`
1^
0_
1W
1S
1N
1E
0F
0G
0<
1:
0;
1/
00
01
0&
1$
0%
0V
1Q
0A
0D
1?
0+
0.
1)
#200000
0"
0H
0I
12
#225000
1"
1H
1I
02
1\
1`
1X
0W
1U
0S
0N
1J
1G
1<
11
1&
1V
0C
1A
1D
0-
1+
1.
#250000
0"
0H
0I
12
#275000
1"
1H
1I
02
1[
0\
0`
1_
1W
1N
1F
0G
0<
1;
10
01
0&
1%
1R
1@
1*
#300000
0"
0H
0I
12
#325000
1"
1H
1I
02
1\
1`
0Y
0X
0W
0U
1S
1O
0N
0M
0J
1G
1<
11
1&
0R
0Q
0P
1C
0A
0@
0?
0>
1-
0+
0*
0)
0(
#350000
0"
0H
0I
12
#375000
1"
1H
1I
02
0Z
0[
0\
1]
0`
0^
0_
1W
0S
1N
0E
0F
0G
19
0<
0:
0;
0/
00
01
1#
0&
0$
0%
1R
1Q
1P
1A
1@
1?
1>
1+
1*
1)
1(
#400000
0"
0H
0I
12
#425000
1"
1H
1I
02
1\
1`
1X
0W
0O
0N
1G
1<
11
1&
0R
0@
0*
#450000
0"
0H
0I
12
#475000
1"
1H
1I
02
1[
0\
0]
0`
1W
1N
1F
0G
09
0<
10
01
0#
0&
1R
0P
1@
0>
1*
0(
#500000
0"
0H
0I
12
#525000
1"
1H
1I
02
1\
1`
1Y
0X
0W
1S
0N
1J
1G
1<
11
1&
0V
0R
0Q
0A
0D
0@
0?
0+
0.
0*
0)
#550000
0"
0H
0I
12
#575000
1"
1H
1I
02
1Z
0[
0\
0`
1_
1W
0S
1N
1E
0F
0G
0<
1;
1/
00
01
0&
1%
1V
0T
1R
1P
1A
1D
0B
1@
1>
1+
1.
0,
1*
1(
#600000
0"
0H
0I
12
#625000
1"
1H
1I
02
1\
1`
1X
0W
0N
1M
0J
1G
1<
11
1&
1T
0R
1B
0@
1,
0*
#650000
0"
0H
0I
12
#675000
1"
1H
1I
02
1[
0\
0`
1^
0_
1W
1S
1N
1F
0G
0<
1:
0;
10
01
0&
1$
0%
0V
1Q
0A
0D
1?
0+
0.
1)
#700000
0"
0H
0I
12
#725000
1"
1H
1I
02
1\
1`
0Y
0X
0W
1U
0S
0N
1J
1G
1<
11
1&
1V
0C
1A
1D
0-
1+
1.
#750000
0"
0H
0I
12
#775000
1"
1H
1I
02
0Z
0[
0\
0`
1_
1W
1N
0E
0F
0G
0<
1;
0/
00
01
0&
1%
1R
1@
1*
#800000
0"
0H
0I
12
#825000
1"
1H
1I
02
1\
1`
1X
0W
0U
1S
1O
0N
0M
0J
1G
1<
11
1&
0R
0Q
0P
1C
0A
0@
0?
0>
1-
0+
0*
0)
0(
#850000
0"
0H
0I
12
#875000
1"
1H
1I
02
1[
0\
1]
0`
0^
0_
1W
0S
1N
1F
0G
19
0<
0:
0;
10
01
1#
0&
0$
0%
1R
1Q
1P
1A
1@
1?
1>
1+
1*
1)
1(
#900000
0"
0H
0I
12
#925000
1"
1H
1I
02
1\
1`
1Y
0X
0W
0O
0N
1G
1<
11
1&
0R
0@
0*
#950000
0"
0H
0I
12
#975000
1"
1H
1I
02
1Z
0[
0\
0]
0`
1W
1N
1E
0F
0G
09
0<
1/
00
01
0#
0&
1R
0P
1@
0>
1*
0(
