test5_traffic/tst5_traffic2/simulation/qsim/traffic.msim.vcd
$comment
	File created using the following command:
		vcd file traffic.msim.vcd -direction
$end
$date
	Mon May 16 15:25:33 2022
$end
$version
	ModelSim Version 10.1d
$end
$timescale
	1ps
$end
$scope module traffic_vlg_vec_tst $end
$var reg 1 ! clk_1s $end
$var reg 1 " clk_2s $end
$var reg 1 # clk_ms $end
$var reg 1 $ RST $end
$var wire 1 % G1 $end
$var wire 1 & G2 $end
$var wire 1 ' LED8s [7] $end
$var wire 1 ( LED8s [6] $end
$var wire 1 ) LED8s [5] $end
$var wire 1 * LED8s [4] $end
$var wire 1 + LED8s [3] $end
$var wire 1 , LED8s [2] $end
$var wire 1 - LED8s [1] $end
$var wire 1 . LED8s [0] $end
$var wire 1 / LED_display [3] $end
$var wire 1 0 LED_display [2] $end
$var wire 1 1 LED_display [1] $end
$var wire 1 2 LED_display [0] $end
$var wire 1 3 R1 $end
$var wire 1 4 R2 $end
$var wire 1 5 SEL [2] $end
$var wire 1 6 SEL [1] $end
$var wire 1 7 SEL [0] $end
$var wire 1 8 Y1 $end
$var wire 1 9 Y2 $end
$var wire 1 : sampler $end
$scope module i1 $end
$var wire 1 ; gnd $end
$var wire 1 < vcc $end
$var wire 1 = unknown $end
$var tri1 1 > devclrn $end
$var tri1 1 ? devpor $end
$var tri1 1 @ devoe $end
$var wire 1 A R1~output_o $end
$var wire 1 B R2~output_o $end
$var wire 1 C Y1~output_o $end
$var wire 1 D Y2~output_o $end
$var wire 1 E G1~output_o $end
$var wire 1 F G2~output_o $end
$var wire 1 G LED8s[7]~output_o $end
$var wire 1 H LED8s[6]~output_o $end
$var wire 1 I LED8s[5]~output_o $end
$var wire 1 J LED8s[4]~output_o $end
$var wire 1 K LED8s[3]~output_o $end
$var wire 1 L LED8s[2]~output_o $end
$var wire 1 M LED8s[1]~output_o $end
$var wire 1 N LED8s[0]~output_o $end
$var wire 1 O LED_display[3]~output_o $end
$var wire 1 P LED_display[2]~output_o $end
$var wire 1 Q LED_display[1]~output_o $end
$var wire 1 R LED_display[0]~output_o $end
$var wire 1 S SEL[2]~output_o $end
$var wire 1 T SEL[1]~output_o $end
$var wire 1 U SEL[0]~output_o $end
$var wire 1 V RST~input_o $end
$var wire 1 W clk_1s~input_o $end
$var wire 1 X clk_1s~inputclkctrl_outclk $end
$var wire 1 Y inst4|SEC_L[0]~5_combout $end
$var wire 1 Z RST~inputclkctrl_outclk $end
$var wire 1 [ inst4|Add1~0_combout $end
$var wire 1 \ inst4|SEC_L~0_combout $end
$var wire 1 ] inst4|SEC_L~1_combout $end
$var wire 1 ^ inst4|Equal0~0_combout $end
$var wire 1 _ inst4|SEC_H[0]~5_combout $end
$var wire 1 ` inst4|SEC_H~1_combout $end
$var wire 1 a inst4|SEC_H~2_combout $end
$var wire 1 b inst4|SEC_H~0_combout $end
$var wire 1 c inst4|Equal1~0_combout $end
$var wire 1 d inst4|dir~0_combout $end
$var wire 1 e inst4|dir~q $end
$var wire 1 f inst4|R1~0_combout $end
$var wire 1 g inst4|R2~0_combout $end
$var wire 1 h inst4|process_1~0_combout $end
$var wire 1 i clk_2s~input_o $end
$var wire 1 j inst4|Y1~0_combout $end
$var wire 1 k inst4|Y2~0_combout $end
$var wire 1 l inst4|G1~2_combout $end
$var wire 1 m inst4|G2~2_combout $end
$var wire 1 n clk_ms~input_o $end
$var wire 1 o clk_ms~inputclkctrl_outclk $end
$var wire 1 p inst2|SE[0]~2_combout $end
$var wire 1 q inst2|SE[1]~1_combout $end
$var wire 1 r inst2|SE[2]~0_combout $end
$var wire 1 s inst2|LED8s[2]~0_combout $end
$var wire 1 t inst2|Mux2~0_combout $end
$var wire 1 u inst2|Mux1~0_combout $end
$var wire 1 v inst2|Mux3~0_combout $end
$var wire 1 w inst2|Mux0~0_combout $end
$var wire 1 x inst2|LED8s[6]~1_combout $end
$var wire 1 y inst2|LED8s[5]~2_combout $end
$var wire 1 z inst2|LED8s[4]~3_combout $end
$var wire 1 { inst2|LED8s[4]~4_combout $end
$var wire 1 | inst2|LED8s[4]~5_combout $end
$var wire 1 } inst2|LED8s[3]~6_combout $end
$var wire 1 ~ inst2|LED8s[2]~8_combout $end
$var wire 1 !! inst2|LED8s~7_combout $end
$var wire 1 "! inst2|LED8s[2]~9_combout $end
$var wire 1 #! inst2|LED8s[2]~10_combout $end
$var wire 1 $! inst2|LED8s[2]~11_combout $end
$var wire 1 %! inst2|LED8s[1]~12_combout $end
$var wire 1 &! inst2|LED8s[0]~13_combout $end
$var wire 1 '! inst2|LED8s[0]~14_combout $end
$var wire 1 (! inst2|LED8s[0]~15_combout $end
$var wire 1 )! inst2|SE [2] $end
$var wire 1 *! inst2|SE [1] $end
$var wire 1 +! inst2|SE [0] $end
$var wire 1 ,! inst4|SEC_L [3] $end
$var wire 1 -! inst4|SEC_L [2] $end
$var wire 1 .! inst4|SEC_L [1] $end
$var wire 1 /! inst4|SEC_L [0] $end
$var wire 1 0! inst4|SEC_H [3] $end
$var wire 1 1! inst4|SEC_H [2] $end
$var wire 1 2! inst4|SEC_H [1] $end
$var wire 1 3! inst4|SEC_H [0] $end
$upscope $end
$upscope $end
$enddefinitions $end
#0
$dumpvars
0!
0"
0#
1$
0%
1&
1.
1-
1,
1+
1*
1)
0(
0'
02
01
00
0/
13
04
07
06
05
18
19
x:
0;
1<
x=
1>
1?
1@
1A
0B
1C
1D
0E
1F
0G
0H
1I
1J
1K
1L
1M
1N
0O
0P
0Q
0R
0S
0T
0U
1V
0W
0X
1Y
1Z
1[
0\
0]
1^
1_
0`
0a
1b
0c
0d
0e
1f
0g
0h
0i
1j
1k
0l
1m
0n
0o
1p
0q
0r
1s
1t
1u
0v
1w
0x
1y
0z
1{
1|
1}
1~
0!!
0"!
1#!
1$!
0%!
0&!
1'!
1(!
0+!
0*!
0)!
0/!
0.!
0-!
0,!
03!
02!
01!
00!
$end
#500
1#
1n
1o
0:
1+!
0t
1q
0p
1U
17
0'!
0#!
1Q
11
0y
1x
0I
1H
0)
1(
0$!
0L
0,
#1000
0#
0n
0o
1:
#1500
1#
1n
1o
0:
1*!
0+!
0s
1t
1p
1T
0U
16
07
0w
0t
1'!
1#!
0Q
01
0(!
1y
0x
0'!
1%!
0#!
0~
1O
1Q
0N
1I
0H
1/
11
0.
1)
0(
0}
0|
0y
1(!
1$!
0M
0K
0J
0I
1N
1L
0-
0+
0*
0)
1.
1,
0(!
0$!
0N
0L
0.
0,
#2000
0#
0n
0o
1:
#2500
1#
1n
1o
0:
1+!
1r
0q
0p
1U
17
#3000
0#
0n
0o
1:
#3500
1#
1n
1o
0:
1)!
0*!
0+!
1p
1S
0T
0U
15
06
07
#4000
0#
0n
0o
1:
#4500
1#
1n
1o
0:
1+!
1q
0p
1U
17
#5000
1!
0#
1W
0n
1X
0o
1:
12!
13!
1,!
1/!
0_
1h
0^
0Y
#5500
1#
1n
1o
0:
1*!
0+!
1p
1T
0U
16
07
#6000
0#
0n
0o
1:
#6500
1#
1n
1o
0:
1+!
0r
0q
0p
1U
17
#7000
0#
0n
0o
1:
#7500
1#
1n
1o
0:
0)!
0*!
0+!
1s
1p
0S
0T
0U
05
06
07
1t
1v
0%!
1#!
1!!
0Q
1R
01
12
1}
1y
1x
1&!
1M
1K
1I
1H
1-
1+
1)
1(
1$!
1L
1,
1(!
1N
1.
#8000
0#
0n
0o
1:
#8500
1#
1n
1o
0:
1+!
1w
1q
0p
1U
17
0#!
0!!
1~
0O
0/
0}
0y
0x
0&!
0K
0I
0H
0+
0)
0(
0(!
0N
0.
#9000
0#
0n
0o
1:
#9500
1#
1n
1o
0:
1*!
0+!
0s
0w
1p
1T
0U
16
07
0t
1#!
1!!
0~
1O
1/
0v
1}
1y
1x
1%!
0#!
1"!
0!!
1Q
0R
1K
1I
1H
11
02
1+
1)
1(
0}
0y
0x
0"!
0M
0K
0I
0H
0-
0+
0)
0(
0$!
0L
0,
#10000
1"
0!
0#
1i
0W
0n
0X
0o
1:
#10500
1#
1n
1o
0:
1+!
1r
0q
0p
1U
17
#11000
0#
0n
0o
1:
#11500
1#
1n
1o
0:
1)!
0*!
0+!
1p
1S
0T
0U
15
06
07
#12000
0#
0n
0o
1:
#12500
1#
1n
1o
0:
1+!
1q
0p
1U
17
#13000
0#
0n
0o
1:
#13500
1#
1n
1o
0:
1*!
0+!
1p
1T
0U
16
07
#14000
0#
0n
0o
1:
#14500
1#
1n
1o
0:
1+!
0r
0q
0p
1U
17
#15000
1!
0#
1W
0n
1X
0o
1:
0/!
1]
1\
0[
1Y
#15500
1#
1n
1o
0:
0)!
0*!
0+!
1s
1p
0S
0T
0U
05
06
07
1t
1'!
0%!
1#!
1!!
1z
0Q
01
1}
1y
1x
1M
1K
1I
1H
1-
1+
1)
1(
1(!
1$!
1|
1N
1L
1J
1.
1,
1*
#16000
0#
0n
0o
1:
#16500
1#
1n
1o
0:
1+!
1w
1q
0p
1U
17
1v
0'!
0#!
0!!
1~
0z
1&!
0O
1R
0/
12
0}
0y
0x
0&!
0K
0I
0H
0+
0)
0(
0|
0J
0*
0(!
0N
0.
#17000
0#
0n
0o
1:
#17500
1#
1n
1o
0:
1*!
0+!
0s
0w
1p
1T
0U
16
07
0v
0t
1'!
1#!
1!!
0~
1z
1O
0R
1/
02
1}
1y
1x
0$!
0'!
1%!
0#!
1"!
0!!
0z
1Q
1K
1I
1H
0L
11
1+
1)
1(
0,
1(!
0}
0y
0x
1$!
1|
0"!
0M
1N
0K
0I
0H
1L
1J
0-
1.
0+
0)
0(
1,
1*
0(!
0|
0N
0J
0.
0*
0$!
0L
0,
#18000
0#
0n
0o
1:
#18500
1#
1n
1o
0:
1+!
1r
0q
0p
1U
17
#19000
0#
0n
0o
1:
#19500
1#
1n
1o
0:
1)!
0*!
0+!
1p
1S
0T
0U
15
06
07
#20000
0"
0!
0#
0i
0W
0n
0X
0o
1:
#20500
1#
1n
1o
0:
1+!
1q
0p
1U
17
#21000
0#
0n
0o
1:
#21500
1#
1n
1o
0:
1*!
0+!
1p
1T
0U
16
07
#22000
0#
0n
0o
1:
#22500
1#
1n
1o
0:
1+!
0r
0q
0p
1U
17
#23000
0#
0n
0o
1:
#23500
1#
1n
1o
0:
0)!
0*!
0+!
1s
1p
0S
0T
0U
05
06
07
1t
1'!
0%!
1#!
1!!
1z
0Q
01
1}
1y
1x
1M
1K
1I
1H
1-
1+
1)
1(
1(!
1$!
1|
1N
1L
1J
1.
1,
1*
#24000
0#
0n
0o
1:
#24500
1#
1n
1o
0:
1+!
1w
1q
0p
1U
17
1v
0'!
0#!
0!!
1~
0z
1&!
0O
1R
0/
12
0}
0y
0x
0&!
0K
0I
0H
0+
0)
0(
0|
0J
0*
0(!
0N
0.
#25000
1!
0#
1W
0n
1X
0o
1:
1.!
1-!
0,!
1/!
0Y
#25500
1#
1n
1o
0:
1*!
0+!
0s
0~
0{
0u
0t
1p
1T
0U
16
07
0w
1u
1'!
1#!
1!!
1{
1P
1Q
10
11
0v
0$!
0'!
1%!
0#!
0!!
1"!
1O
0P
0R
0L
1/
00
02
0,
1(!
1$!
0"!
0M
1N
1L
0-
1.
1,
0(!
0N
0.
0$!
0L
0,
#26000
0#
0n
0o
1:
#26500
1#
1n
1o
0:
1+!
1r
0q
0p
1U
17
#27000
0#
0n
0o
1:
#27500
1#
1n
1o
0:
1)!
0*!
0+!
1p
1S
0T
0U
15
06
07
#28000
0#
0n
0o
1:
#28500
1#
1n
1o
0:
1+!
1q
0p
1U
17
#29000
0#
0n
0o
1:
#29500
1#
1n
1o
0:
1*!
0+!
1p
1T
0U
16
07
#30000
1"
0!
0#
1i
0W
0n
0X
0o
1:
#30500
1#
1n
1o
0:
1+!
0r
0q
0p
1U
17
#31000
0#
0n
0o
1:
#31500
1#
1n
1o
0:
0)!
0*!
0+!
1s
1p
0S
0T
0U
05
06
07
1w
0u
1v
1'!
0%!
1#!
1!!
0O
1P
1R
0/
10
12
1M
1-
1(!
1$!
1N
1L
1.
1,
#32000
0#
0n
0o
1:
#32500
1#
1n
1o
0:
1+!
1~
1u
1t
1q
0p
1U
17
0'!
0#!
0!!
0P
0Q
00
01
0(!
0N
0.
#33000
0#
0n
0o
1:
#33500
1#
1n
1o
0:
1*!
0+!
0s
0~
0{
0u
0t
1p
1T
0U
16
07
0w
1u
1'!
1#!
1!!
1{
1P
1Q
10
11
0v
0$!
0'!
1%!
0#!
0!!
1"!
1O
0P
0R
0L
1/
00
02
0,
1(!
1$!
0"!
0M
1N
1L
0-
1.
1,
0(!
0N
0.
0$!
0L
0,
#34000
0#
0n
0o
1:
#34500
1#
1n
1o
0:
1+!
1r
0q
0p
1U
17
#35000
1!
0#
1W
0n
1X
0o
1:
0/!
0]
1Y
#35500
1#
1n
1o
0:
1)!
0*!
0+!
1p
1S
0T
0U
15
06
07
#36000
0#
0n
0o
1:
#36500
1#
1n
1o
0:
1+!
1q
0p
1U
17
#37000
0#
0n
0o
1:
#37500
1#
1n
1o
0:
1*!
0+!
1p
1T
0U
16
07
#38000
0#
0n
0o
1:
#38500
1#
1n
1o
0:
1+!
0r
0q
0p
1U
17
#39000
0#
0n
0o
1:
#39500
1#
1n
1o
0:
0)!
0*!
0+!
1s
1p
0S
0T
0U
05
06
07
1w
0u
1'!
1!!
0O
1P
0/
10
1}
1|
1y
1x
1"!
1K
1J
1I
1H
1+
1*
1)
1(
1(!
1N
1.
1$!
1L
1,
#40000
0"
0!
0#
0i
0W
0n
0X
0o
1:
#40500
1#
1n
1o
0:
1+!
1~
1u
1t
1q
0p
1U
17
1v
0"!
0'!
0%!
0!!
0P
0Q
1R
00
01
12
0}
0y
0x
0|
1M
0K
0I
0H
0J
1-
0+
0)
0(
0*
0(!
0N
0.
#41000
0#
0n
0o
1:
#41500
1#
1n
1o
0:
1*!
0+!
0s
0~
0{
0u
0t
1p
1T
0U
16
07
0v
0w
1u
1'!
1%!
1!!
1{
1P
1Q
0R
10
11
02
0$!
1}
1y
1x
0'!
0!!
1"!
1O
0P
0M
0L
1K
1I
1H
1/
00
0-
0,
1+
1)
1(
0}
0y
0x
1(!
0"!
0K
0I
0H
1N
0+
0)
0(
1.
0(!
1$!
0N
1L
0.
1,
0$!
0L
0,
#42000
0#
0n
0o
1:
#42500
1#
1n
1o
0:
1+!
1r
0q
0p
1U
17
#43000
0#
0n
0o
1:
#43500
1#
1n
1o
0:
1)!
0*!
0+!
1p
1S
0T
0U
15
06
07
#44000
0#
0n
0o
1:
#44500
1#
1n
1o
0:
1+!
1q
0p
1U
17
#45000
1!
0#
1W
0n
1X
0o
1:
0.!
1/!
0Y
#45500
1#
1n
1o
0:
1*!
0+!
1p
1T
0U
16
07
#46000
0#
0n
0o
1:
#46500
1#
1n
1o
0:
1+!
0r
0q
0p
1U
17
#47000
0#
0n
0o
1:
#47500
1#
1n
1o
0:
0)!
0*!
0+!
1s
1p
0S
0T
0U
05
06
07
1w
0u
1t
1v
1#!
1!!
0{
0O
1P
0Q
1R
0/
10
01
12
1}
1y
1x
1&!
1K
1I
1H
1+
1)
1(
1$!
1L
1,
1(!
1N
1.
#48000
0#
0n
0o
1:
#48500
1#
1n
1o
0:
1+!
1~
1{
1u
1q
0p
1U
17
0&!
0%!
0#!
0!!
0P
00
0}
0y
0x
1M
0K
0I
0H
1-
0+
0)
0(
0(!
0N
0.
#49000
0#
0n
0o
1:
#49500
1#
1n
1o
0:
1*!
0+!
0s
0~
0{
0u
1p
1T
0U
16
07
0w
1u
0t
1%!
1#!
1!!
1P
10
0v
0$!
1}
1y
1x
0#!
0!!
1"!
1{
1O
0P
1Q
0M
0R
0L
1K
1I
1H
1/
00
11
0-
02
0,
1+
1)
1(
0}
0y
0x
1$!
0"!
0K
0I
0H
1L
0+
0)
0(
1,
0$!
0L
0,
#50000
1"
0!
0#
1i
0W
0n
0X
0o
1:
#50500
1#
1n
1o
0:
1+!
1r
0q
0p
1U
17
#51000
0#
0n
0o
1:
#51500
1#
1n
1o
0:
1)!
0*!
0+!
1p
1S
0T
0U
15
06
07
#52000
0#
0n
0o
1:
#52500
1#
1n
1o
0:
1+!
1q
0p
1U
17
#53000
0#
0n
0o
1:
#53500
1#
1n
1o
0:
1*!
0+!
1p
1T
0U
16
07
#54000
0#
0n
0o
1:
#54500
1#
1n
1o
0:
1+!
0r
0q
0p
1U
17
#55000
1!
0#
1W
0n
1X
0o
1:
0/!
1]
0\
1Y
#55500
1#
1n
1o
0:
0)!
0*!
0+!
1s
1p
0S
0T
0U
05
06
07
1w
0u
1t
0%!
1#!
0{
0O
1P
0Q
0/
10
01
1|
1y
1x
1M
1J
1I
1H
1-
1*
1)
1(
1$!
0|
1L
0J
1,
0*
#56000
0#
0n
0o
1:
#56500
1#
1n
1o
0:
1+!
1~
1{
1u
1q
0p
1U
17
1v
0#!
0P
1R
00
12
0y
0x
0I
0H
0)
0(
#57000
0#
0n
0o
1:
#57500
1#
1n
1o
0:
1*!
0+!
0s
0~
0{
0u
1p
1T
0U
16
07
0v
0w
1u
0t
1#!
1P
0R
10
02
0$!
1y
1x
1%!
0#!
1{
1O
0P
1Q
0L
1I
1H
1/
00
11
0,
1)
1(
0y
0x
1$!
0M
0I
0H
1L
0-
0)
0(
1,
0$!
0L
0,
#58000
0#
0n
0o
1:
#58500
1#
1n
1o
0:
1+!
1r
0q
0p
1U
17
#59000
0#
0n
0o
1:
#59500
1#
1n
1o
0:
1)!
0*!
0+!
1p
1S
0T
0U
15
06
07
#60000
0"
0!
0#
0i
0W
0n
0X
0o
1:
#60500
1#
1n
1o
0:
1+!
1q
0p
1U
17
#61000
0#
0n
0o
1:
#61500
1#
1n
1o
0:
1*!
0+!
1p
1T
0U
16
07
#62000
0#
0n
0o
1:
#62500
1#
1n
1o
0:
1+!
0r
0q
0p
1U
17
#63000
0#
0n
0o
1:
#63500
1#
1n
1o
0:
0)!
0*!
0+!
1s
1p
0S
0T
0U
05
06
07
1w
0u
1t
0%!
1#!
0{
0O
1P
0Q
0/
10
01
1|
1y
1x
1M
1J
1I
1H
1-
1*
1)
1(
1$!
0|
1L
0J
1,
0*
#64000
0#
0n
0o
1:
#64500
1#
1n
1o
0:
1+!
1~
1{
1u
1q
0p
1U
17
1v
0#!
0P
1R
00
12
0y
0x
0I
0H
0)
0(
#65000
1!
0#
1W
0n
1X
0o
1:
1.!
0-!
1/!
0Y
#65500
1#
1n
1o
0:
1*!
0+!
0s
0t
1p
1T
0U
16
07
0w
1Q
11
0v
1(!
1}
1x
1%!
0~
1O
0R
1N
1K
1H
1/
02
1.
1+
1(
0}
0x
0$!
0M
0K
0H
0L
0-
0+
0(
0,
0(!
0N
0.
#66000
0#
0n
0o
1:
#66500
1#
1n
1o
0:
1+!
1r
0q
0p
1U
17
#67000
0#
0n
0o
1:
#67500
1#
1n
1o
0:
1)!
0*!
0+!
1p
1S
0T
0U
15
06
07
#68000
0#
0n
0o
1:
#68500
1#
1n
1o
0:
1+!
1q
0p
1U
17
#69000
0#
0n
0o
1:
#69500
1#
1n
1o
0:
1*!
0+!
1p
1T
0U
16
07
#70000
1"
0!
0#
1i
0W
0n
0X
0o
1:
#70500
1#
1n
1o
0:
1+!
0r
0q
0p
1U
17
#71000
0#
0n
0o
1:
#71500
1#
1n
1o
0:
0)!
0*!
0+!
1s
1p
0S
0T
0U
05
06
07
1w
1v
0%!
1~
0O
1R
0/
12
1}
1x
1M
1K
1H
1-
1+
1(
1(!
1$!
1N
1L
1.
1,
#72000
0#
0n
0o
1:
#72500
1#
1n
1o
0:
1+!
1t
1q
0p
1U
17
0Q
01
0(!
0}
0x
0N
0K
0H
0.
0+
0(
#73000
0#
0n
0o
1:
#73500
1#
1n
1o
0:
1*!
0+!
0s
0t
1p
1T
0U
16
07
0w
1Q
11
0v
1(!
1}
1x
1%!
0~
1O
0R
1N
1K
1H
1/
02
1.
1+
1(
0}
0x
0$!
0M
0K
0H
0L
0-
0+
0(
0,
0(!
0N
0.
#74000
0#
0n
0o
1:
#74500
1#
1n
1o
0:
1+!
1r
0q
0p
1U
17
#75000
1!
0#
1W
0n
1X
0o
1:
0/!
0h
0]
1Y
#75500
1#
1n
1o
0:
1)!
0*!
0+!
1p
1S
0T
0U
15
06
07
#76000
0#
0n
0o
1:
#76500
1#
1n
1o
0:
1+!
1q
0p
1U
17
#77000
0#
0n
0o
1:
#77500
1#
1n
1o
0:
1*!
0+!
1p
1T
0U
16
07
#78000
0#
0n
0o
1:
#78500
1#
1n
1o
0:
1+!
0r
0q
0p
1U
17
#79000
0#
0n
0o
1:
#79500
1#
1n
1o
0:
0)!
0*!
0+!
1s
1p
0S
0T
0U
05
06
07
1w
0%!
1~
0O
0/
1}
1|
1x
1M
1K
1J
1H
1-
1+
1*
1(
1(!
1N
1.
#80000
0"
0!
0#
0i
0W
0n
0X
0o
1:
#80500
1#
1n
1o
0:
1+!
1t
1q
0p
1U
17
1v
0Q
1R
01
12
0(!
0}
0x
1$!
0|
0N
0K
0H
1L
0J
0.
0+
0(
1,
0*
#81000
0#
0n
0o
1:
#81500
1#
1n
1o
0:
1*!
0+!
0s
0t
1p
1T
0U
16
07
0v
0w
1Q
0R
11
02
1(!
1}
1x
0$!
1|
1%!
0~
1O
1N
1K
1H
0L
1J
1/
1.
1+
1(
0,
1*
0}
0|
0x
0M
0K
0J
0H
0-
0+
0*
0(
0(!
0N
0.
#82000
0#
0n
0o
1:
#82500
1#
1n
1o
0:
1+!
1r
0q
0p
1U
17
#83000
0#
0n
0o
1:
#83500
1#
1n
1o
0:
1)!
0*!
0+!
1p
1S
0T
0U
15
06
07
#84000
0#
0n
0o
1:
#84500
1#
1n
1o
0:
1+!
1q
0p
1U
17
#85000
1!
0#
1W
0n
1X
0o
1:
0.!
1/!
0Y
#85500
1#
1n
1o
0:
1*!
0+!
1p
1T
0U
16
07
#86000
0#
0n
0o
1:
#86500
1#
1n
1o
0:
1+!
0r
0q
0p
1U
17
#87000
0#
0n
0o
1:
#87500
1#
1n
1o
0:
0)!
0*!
0+!
1s
1p
0S
0T
0U
05
06
07
1w
1t
1v
0%!
1~
0O
0Q
1R
0/
01
12
1M
1-
1$!
1L
1,
#88000
0#
0n
0o
1:
#88500
1#
1n
1o
0:
1+!
1q
0p
1U
17
#89000
0#
0n
0o
1:
#89500
1#
1n
1o
0:
1*!
0+!
0s
1p
1T
0U
16
07
0w
0t
0v
1%!
0~
1O
1Q
0R
1/
11
02
1(!
0$!
0M
1N
0L
0-
1.
0,
0(!
0N
0.
#90000
1"
0!
0#
1i
0W
0n
0X
0o
1:
#90500
1#
1n
1o
0:
1+!
1r
0q
0p
1U
17
#91000
0#
0n
0o
1:
#91500
1#
1n
1o
0:
1)!
0*!
0+!
1p
1S
0T
0U
15
06
07
#92000
0#
0n
0o
1:
#92500
1#
1n
1o
0:
1+!
1q
0p
1U
17
#93000
0#
0n
0o
1:
#93500
1#
1n
1o
0:
1*!
0+!
1p
1T
0U
16
07
#94000
0#
0n
0o
1:
#94500
1#
1n
1o
0:
1+!
0r
0q
0p
1U
17
#95000
1!
0#
1W
0n
1X
0o
1:
0/!
1^
1[
1Y
#95500
1#
1n
1o
0:
0)!
0*!
0+!
1s
1p
0S
0T
0U
05
06
07
1w
1t
1'!
0%!
1#!
1~
0O
0Q
0/
01
1}
1|
1y
1M
1K
1J
1I
1-
1+
1*
1)
1(!
1$!
1N
1L
1.
1,
#96000
0#
0n
0o
1:
#96500
1#
1n
1o
0:
1+!
1q
0p
1U
17
1v
0'!
0#!
1R
12
0}
0|
0y
0K
0J
0I
0+
0*
0)
0(!
0N
0.
#97000
0#
0n
0o
1:
#97500
1#
1n
1o
0:
1*!
0+!
0s
1p
1T
0U
16
07
0v
0w
0t
1'!
1#!
0R
02
0$!
1}
1|
1y
0'!
1%!
0#!
0~
1O
1Q
0L
1K
1J
1I
1/
11
0,
1+
1*
1)
0}
0|
0y
1(!
1$!
0M
0K
0J
0I
1N
1L
0-
0+
0*
0)
1.
1,
0(!
0$!
0N
0L
0.
0,
#98000
0#
0n
0o
1:
#98500
1#
1n
1o
0:
1+!
1r
0q
0p
1U
17
#99000
0#
0n
0o
1:
#99500
1#
1n
1o
0:
1)!
0*!
0+!
1p
1S
0T
0U
15
06
07
#100000
0"
0!
0#
0i
0W
0n
0X
0o
1:
#100500
1#
1n
1o
0:
1+!
1q
0p
1U
17
#101000
0#
0n
0o
1:
#101500
1#
1n
1o
0:
1*!
0+!
1p
1T
0U
16
07
#102000
0#
0n
0o
1:
#102500
1#
1n
1o
0:
1+!
0r
0q
0p
1U
17
#103000
0#
0n
0o
1:
#103500
1#
1n
1o
0:
0)!
0*!
0+!
1s
1p
0S
0T
0U
05
06
07
1w
1t
1'!
0%!
1#!
1~
0O
0Q
0/
01
1}
1|
1y
1M
1K
1J
1I
1-
1+
1*
1)
1(!
1$!
1N
1L
1.
1,
#104000
0#
0n
0o
1:
#104500
1#
1n
1o
0:
1+!
1q
0p
1U
17
1v
0'!
0#!
1R
12
0}
0|
0y
0K
0J
0I
0+
0*
0)
0(!
0N
0.
#105000
1!
0#
1W
0n
1X
0o
1:
03!
1,!
1/!
1c
1_
1h
0^
0Y
0v
1'!
1#!
0R
02
0$!
1}
1|
1y
0L
1K
1J
1I
0,
1+
1*
1)
1(!
1$!
1N
1L
1.
1,
#105500
1#
1n
1o
0:
1*!
0+!
0s
0w
1p
1T
0U
16
07
1v
0t
0'!
1!!
0~
1O
1R
1/
12
0v
0|
1x
1%!
0#!
1"!
0!!
1Q
0R
0J
1H
11
02
0*
1(
0(!
0}
0y
0x
0"!
0M
0N
0K
0I
0H
0-
0.
0+
0)
0(
0$!
0L
0,
#106000
0#
0n
0o
1:
#106500
1#
1n
1o
0:
1+!
1r
0q
0p
1U
17
#107000
0#
0n
0o
1:
#107500
1#
1n
1o
0:
1)!
0*!
0+!
1p
1S
0T
0U
15
06
07
#108000
0#
0n
0o
1:
#108500
1#
1n
1o
0:
1+!
1q
0p
1U
17
#109000
0#
0n
0o
1:
#109500
1#
1n
1o
0:
1*!
0+!
1p
1T
0U
16
07
#110000
1"
0!
0#
1i
0W
0n
0X
0o
1:
#110500
1#
1n
1o
0:
1+!
0r
0q
0p
1U
17
#111000
0#
0n
0o
1:
#111500
1#
1n
1o
0:
0)!
0*!
0+!
1s
1p
0S
0T
0U
05
06
07
1t
1v
0%!
1#!
1!!
0Q
1R
01
12
1}
1y
1x
1&!
1M
1K
1I
1H
1-
1+
1)
1(
1$!
1L
1,
1(!
1N
1.
#112000
0#
0n
0o
1:
#112500
1#
1n
1o
0:
1+!
1w
1q
0p
1U
17
0v
1'!
0!!
1~
0&!
0O
0R
0/
02
1|
0x
1J
0H
1*
0(
#113000
0#
0n
0o
1:
#113500
1#
1n
1o
0:
1*!
0+!
0s
0w
1p
1T
0U
16
07
1v
0t
0'!
1!!
0~
1O
1R
1/
12
0v
0|
1x
1%!
0#!
1"!
0!!
1Q
0R
0J
1H
11
02
0*
1(
0(!
0}
0y
0x
0"!
0M
0N
0K
0I
0H
0-
0.
0+
0)
0(
0$!
0L
0,
#114000
0#
0n
0o
1:
#114500
1#
1n
1o
0:
1+!
1r
0q
0p
1U
17
#115000
1!
0#
1W
0n
1X
0o
1:
0/!
1]
1\
0[
1Y
#115500
1#
1n
1o
0:
1)!
0*!
0+!
1p
1S
0T
0U
15
06
07
#116000
0#
0n
0o
1:
#116500
1#
1n
1o
0:
1+!
1q
0p
1U
17
#117000
0#
0n
0o
1:
#117500
1#
1n
1o
0:
1*!
0+!
1p
1T
0U
16
07
#118000
0#
0n
0o
1:
#118500
1#
1n
1o
0:
1+!
0r
0q
0p
1U
17
#119000
0#
0n
0o
1:
#119500
1#
1n
1o
0:
0)!
0*!
0+!
1s
1p
0S
0T
0U
05
06
07
1t
1'!
0%!
1#!
1!!
1z
0Q
01
1}
1y
1x
1M
1K
1I
1H
1-
1+
1)
1(
1(!
1$!
1|
1N
1L
1J
1.
1,
1*
#120000
0"
0!
0#
0i
0W
0n
0X
0o
1:
#120500
1#
1n
1o
0:
1+!
1w
1q
0p
1U
17
0!!
1~
0z
0O
0/
0x
0H
0(
#121000
0#
0n
0o
1:
#121500
1#
1n
1o
0:
1*!
0+!
0s
0w
1p
1T
0U
16
07
0t
1!!
0~
1z
1O
1/
0|
1x
0'!
1%!
0#!
1"!
0!!
0z
1Q
0J
1H
11
0*
1(
0}
0y
0x
1|
0"!
0M
0K
0I
0H
1J
0-
0+
0)
0(
1*
0(!
0|
0N
0J
0.
0*
0$!
0L
0,
#122000
0#
0n
0o
1:
#122500
1#
1n
1o
0:
1+!
1r
0q
0p
1U
17
#123000
0#
0n
0o
1:
#123500
1#
1n
1o
0:
1)!
0*!
0+!
1p
1S
0T
0U
15
06
07
#124000
0#
0n
0o
1:
#124500
1#
1n
1o
0:
1+!
1q
0p
1U
17
#125000
1!
0#
1W
0n
1X
0o
1:
1.!
1-!
0,!
1/!
0Y
#125500
1#
1n
1o
0:
1*!
0+!
1p
1T
0U
16
07
#126000
0#
0n
0o
1:
#126500
1#
1n
1o
0:
1+!
0r
0q
0p
1U
17
#127000
0#
0n
0o
1:
#127500
1#
1n
1o
0:
0)!
0*!
0+!
1s
1p
0S
0T
0U
05
06
07
1w
0u
1v
1'!
0%!
1#!
1!!
0O
1P
1R
0/
10
12
1M
1-
1(!
1$!
1N
1L
1.
1,
#128000
0#
0n
0o
1:
#128500
1#
1n
1o
0:
1+!
1~
1u
1t
1q
0p
1U
17
0v
0!!
0P
0Q
0R
00
01
02
1}
1y
1|
1K
1I
1J
1+
1)
1*
#129000
0#
0n
0o
1:
