test6/tst6_1/simulation/qsim/mea.msim.vcd
$comment
	File created using the following command:
		vcd file mea.msim.vcd -direction
$end
$date
	Mon May 16 16:01:40 2022
$end
$version
	ModelSim Version 10.1d
$end
$timescale
	1ps
$end
$scope module count_add_vlg_vec_tst $end
$var reg 1 ! clk_2s $end
$var reg 1 " rst $end
$var reg 1 # scoure $end
$var wire 1 $ num [27] $end
$var wire 1 % num [26] $end
$var wire 1 & num [25] $end
$var wire 1 ' num [24] $end
$var wire 1 ( num [23] $end
$var wire 1 ) num [22] $end
$var wire 1 * num [21] $end
$var wire 1 + num [20] $end
$var wire 1 , num [19] $end
$var wire 1 - num [18] $end
$var wire 1 . num [17] $end
$var wire 1 / num [16] $end
$var wire 1 0 num [15] $end
$var wire 1 1 num [14] $end
$var wire 1 2 num [13] $end
$var wire 1 3 num [12] $end
$var wire 1 4 num [11] $end
$var wire 1 5 num [10] $end
$var wire 1 6 num [9] $end
$var wire 1 7 num [8] $end
$var wire 1 8 num [7] $end
$var wire 1 9 num [6] $end
$var wire 1 : num [5] $end
$var wire 1 ; num [4] $end
$var wire 1 < num [3] $end
$var wire 1 = num [2] $end
$var wire 1 > num [1] $end
$var wire 1 ? num [0] $end
$var wire 1 @ sampler $end
$scope module i1 $end
$var wire 1 A gnd $end
$var wire 1 B vcc $end
$var wire 1 C unknown $end
$var tri1 1 D devclrn $end
$var tri1 1 E devpor $end
$var tri1 1 F devoe $end
$var wire 1 G num[0]~output_o $end
$var wire 1 H num[1]~output_o $end
$var wire 1 I num[2]~output_o $end
$var wire 1 J num[3]~output_o $end
$var wire 1 K num[4]~output_o $end
$var wire 1 L num[5]~output_o $end
$var wire 1 M num[6]~output_o $end
$var wire 1 N num[7]~output_o $end
$var wire 1 O num[8]~output_o $end
$var wire 1 P num[9]~output_o $end
$var wire 1 Q num[10]~output_o $end
$var wire 1 R num[11]~output_o $end
$var wire 1 S num[12]~output_o $end
$var wire 1 T num[13]~output_o $end
$var wire 1 U num[14]~output_o $end
$var wire 1 V num[15]~output_o $end
$var wire 1 W num[16]~output_o $end
$var wire 1 X num[17]~output_o $end
$var wire 1 Y num[18]~output_o $end
$var wire 1 Z num[19]~output_o $end
$var wire 1 [ num[20]~output_o $end
$var wire 1 \ num[21]~output_o $end
$var wire 1 ] num[22]~output_o $end
$var wire 1 ^ num[23]~output_o $end
$var wire 1 _ num[24]~output_o $end
$var wire 1 ` num[25]~output_o $end
$var wire 1 a num[26]~output_o $end
$var wire 1 b num[27]~output_o $end
$var wire 1 c clk_2s~input_o $end
$var wire 1 d clk_2s~inputclkctrl_outclk $end
$var wire 1 e scoure~input_o $end
$var wire 1 f scoure~inputclkctrl_outclk $end
$var wire 1 g N[0]~79_combout $end
$var wire 1 h rst~input_o $end
$var wire 1 i N[0]~26_combout $end
$var wire 1 j N_lock[0]~feeder_combout $end
$var wire 1 k rst~inputclkctrl_outclk $end
$var wire 1 l N[1]~27_combout $end
$var wire 1 m N_lock[1]~feeder_combout $end
$var wire 1 n N[1]~28 $end
$var wire 1 o N[2]~29_combout $end
$var wire 1 p N_lock[2]~feeder_combout $end
$var wire 1 q N[2]~30 $end
$var wire 1 r N[3]~31_combout $end
$var wire 1 s N_lock[3]~feeder_combout $end
$var wire 1 t N[3]~32 $end
$var wire 1 u N[4]~33_combout $end
$var wire 1 v N_lock[4]~feeder_combout $end
$var wire 1 w N[4]~34 $end
$var wire 1 x N[5]~35_combout $end
$var wire 1 y N_lock[5]~feeder_combout $end
$var wire 1 z N[5]~36 $end
$var wire 1 { N[6]~37_combout $end
$var wire 1 | N_lock[6]~feeder_combout $end
$var wire 1 } N[6]~38 $end
$var wire 1 ~ N[7]~39_combout $end
$var wire 1 !! N_lock[7]~feeder_combout $end
$var wire 1 "! N[7]~40 $end
$var wire 1 #! N[8]~41_combout $end
$var wire 1 $! N_lock[8]~feeder_combout $end
$var wire 1 %! N[8]~42 $end
$var wire 1 &! N[9]~43_combout $end
$var wire 1 '! N_lock[9]~feeder_combout $end
$var wire 1 (! N[9]~44 $end
$var wire 1 )! N[10]~45_combout $end
$var wire 1 *! N_lock[10]~feeder_combout $end
$var wire 1 +! N[10]~46 $end
$var wire 1 ,! N[11]~47_combout $end
$var wire 1 -! N_lock[11]~feeder_combout $end
$var wire 1 .! N[11]~48 $end
$var wire 1 /! N[12]~49_combout $end
$var wire 1 0! N_lock[12]~feeder_combout $end
$var wire 1 1! N[12]~50 $end
$var wire 1 2! N[13]~51_combout $end
$var wire 1 3! N_lock[13]~feeder_combout $end
$var wire 1 4! N[13]~52 $end
$var wire 1 5! N[14]~53_combout $end
$var wire 1 6! N_lock[14]~feeder_combout $end
$var wire 1 7! N[14]~54 $end
$var wire 1 8! N[15]~55_combout $end
$var wire 1 9! N[15]~56 $end
$var wire 1 :! N[16]~57_combout $end
$var wire 1 ;! N_lock[16]~feeder_combout $end
$var wire 1 <! N[16]~58 $end
$var wire 1 =! N[17]~59_combout $end
$var wire 1 >! N_lock[17]~feeder_combout $end
$var wire 1 ?! N[17]~60 $end
$var wire 1 @! N[18]~61_combout $end
$var wire 1 A! N_lock[18]~feeder_combout $end
$var wire 1 B! N[18]~62 $end
$var wire 1 C! N[19]~63_combout $end
$var wire 1 D! N_lock[19]~feeder_combout $end
$var wire 1 E! N[19]~64 $end
$var wire 1 F! N[20]~65_combout $end
$var wire 1 G! N_lock[20]~feeder_combout $end
$var wire 1 H! N[20]~66 $end
$var wire 1 I! N[21]~67_combout $end
$var wire 1 J! N_lock[21]~feeder_combout $end
$var wire 1 K! N[21]~68 $end
$var wire 1 L! N[22]~69_combout $end
$var wire 1 M! N_lock[22]~feeder_combout $end
$var wire 1 N! N[22]~70 $end
$var wire 1 O! N[23]~71_combout $end
$var wire 1 P! N_lock[23]~feeder_combout $end
$var wire 1 Q! N[23]~72 $end
$var wire 1 R! N[24]~73_combout $end
$var wire 1 S! N_lock[24]~feeder_combout $end
$var wire 1 T! N[24]~74 $end
$var wire 1 U! N[25]~75_combout $end
$var wire 1 V! N_lock[25]~feeder_combout $end
$var wire 1 W! N[25]~76 $end
$var wire 1 X! N[26]~77_combout $end
$var wire 1 Y! N_lock[26]~feeder_combout $end
$var wire 1 Z! N_lock [26] $end
$var wire 1 [! N_lock [25] $end
$var wire 1 \! N_lock [24] $end
$var wire 1 ]! N_lock [23] $end
$var wire 1 ^! N_lock [22] $end
$var wire 1 _! N_lock [21] $end
$var wire 1 `! N_lock [20] $end
$var wire 1 a! N_lock [19] $end
$var wire 1 b! N_lock [18] $end
$var wire 1 c! N_lock [17] $end
$var wire 1 d! N_lock [16] $end
$var wire 1 e! N_lock [15] $end
$var wire 1 f! N_lock [14] $end
$var wire 1 g! N_lock [13] $end
$var wire 1 h! N_lock [12] $end
$var wire 1 i! N_lock [11] $end
$var wire 1 j! N_lock [10] $end
$var wire 1 k! N_lock [9] $end
$var wire 1 l! N_lock [8] $end
$var wire 1 m! N_lock [7] $end
$var wire 1 n! N_lock [6] $end
$var wire 1 o! N_lock [5] $end
$var wire 1 p! N_lock [4] $end
$var wire 1 q! N_lock [3] $end
$var wire 1 r! N_lock [2] $end
$var wire 1 s! N_lock [1] $end
$var wire 1 t! N_lock [0] $end
$var wire 1 u! N [26] $end
$var wire 1 v! N [25] $end
$var wire 1 w! N [24] $end
$var wire 1 x! N [23] $end
$var wire 1 y! N [22] $end
$var wire 1 z! N [21] $end
$var wire 1 {! N [20] $end
$var wire 1 |! N [19] $end
$var wire 1 }! N [18] $end
$var wire 1 ~! N [17] $end
$var wire 1 !" N [16] $end
$var wire 1 "" N [15] $end
$var wire 1 #" N [14] $end
$var wire 1 $" N [13] $end
$var wire 1 %" N [12] $end
$var wire 1 &" N [11] $end
$var wire 1 '" N [10] $end
$var wire 1 (" N [9] $end
$var wire 1 )" N [8] $end
$var wire 1 *" N [7] $end
$var wire 1 +" N [6] $end
$var wire 1 ," N [5] $end
$var wire 1 -" N [4] $end
$var wire 1 ." N [3] $end
$var wire 1 /" N [2] $end
$var wire 1 0" N [1] $end
$var wire 1 1" N [0] $end
$upscope $end
$upscope $end
$enddefinitions $end
#0
$dumpvars
0!
1"
0#
0v
1w
0x
0y
0z
0{
0|
1}
0~
0!!
0"!
0#!
0$!
1%!
0&!
0'!
0(!
0)!
0*!
1+!
0,!
0-!
0.!
0/!
00!
11!
02!
03!
04!
05!
06!
17!
08!
09!
0:!
0;!
1<!
0=!
0>!
0?!
0@!
0A!
1B!
0C!
0D!
0E!
0F!
0G!
1H!
0I!
0J!
0K!
0L!
0M!
1N!
0O!
0P!
0Q!
0R!
0S!
0?
0>
0=
0<
0;
0:
09
08
07
06
05
04
03
02
01
00
0/
0.
0-
0,
0+
0*
0)
0(
0'
0&
0%
0$
x@
0A
1B
xC
1D
1E
1F
0G
0H
0I
0J
0K
0L
0M
0N
0O
0P
0Q
0R
0S
0T
0U
0V
0W
0X
0Y
0Z
0[
0\
0]
0^
0_
0`
0a
0b
0c
0d
0e
0f
1g
1h
1i
0j
1k
0l
0m
0n
0o
0p
1q
0r
0s
0t
0u
1T!
0U!
0V!
0W!
0X!
0Y!
0t!
0s!
0r!
0q!
0p!
0o!
0n!
0m!
0l!
0k!
0j!
0i!
0h!
0g!
0f!
0e!
0d!
0c!
0b!
0a!
0`!
0_!
0^!
0]!
0\!
0[!
0Z!
01"
00"
0/"
0."
0-"
0,"
0+"
0*"
0)"
0("
0'"
0&"
0%"
0$"
0#"
0""
0!"
0~!
0}!
0|!
0{!
0z!
0y!
0x!
0w!
0v!
0u!
$end
#500
1#
1e
1f
0@
#1000
0#
0e
0f
1@
#1500
1#
1e
1f
0@
#2000
0#
0e
0f
1@
#2500
1#
1e
1f
0@
#3000
0#
0e
0f
1@
#3500
1#
1e
1f
0@
#4000
0#
0e
0f
1@
#4500
1#
1e
1f
0@
#5000
0#
0e
0f
1@
#5500
1#
1e
1f
0@
#6000
0#
0e
0f
1@
#6500
1#
1e
1f
0@
#7000
0#
0e
0f
1@
#7500
1#
1e
1f
0@
#8000
0#
0e
0f
1@
#8500
1#
1e
1f
0@
#9000
0#
0e
0f
1@
#9500
1#
1e
1f
0@
#10000
0#
0e
0f
1@
#10500
1#
1e
1f
0@
#11000
0#
0e
0f
1@
#11500
1#
1e
1f
0@
#12000
0#
0e
0f
1@
#12500
1#
1e
1f
0@
#13000
0#
0e
0f
1@
#13500
1#
1e
1f
0@
#14000
0#
0e
0f
1@
#14500
1#
1e
1f
0@
#15000
0#
0e
0f
1@
#15500
1#
1e
1f
0@
#16000
0#
0e
0f
1@
#16500
1#
1e
1f
0@
#17000
0#
0e
0f
1@
#17500
1#
1e
1f
0@
#18000
0#
0e
0f
1@
#18500
1#
1e
1f
0@
#19000
0#
0e
0f
1@
#19500
1#
1e
1f
0@
#20000
0#
0e
0f
1@
#20500
1#
1e
1f
0@
#21000
0#
0e
0f
1@
#21500
1#
1e
1f
0@
#22000
0#
0e
0f
1@
#22500
1#
1e
1f
0@
#23000
0#
0e
0f
1@
#23500
1#
1e
1f
0@
#24000
0#
0e
0f
1@
#24500
1#
1e
1f
0@
#25000
0#
0e
0f
1@
#25500
1#
1e
1f
0@
#26000
0#
0e
0f
1@
#26500
1#
1e
1f
0@
#27000
0#
0e
0f
1@
#27500
1#
1e
1f
0@
#28000
0#
0e
0f
1@
#28500
1#
1e
1f
0@
#29000
0#
0e
0f
1@
#29500
1#
1e
1f
0@
#30000
0#
0e
0f
1@
#30500
1#
1e
1f
0@
#31000
0#
0e
0f
1@
#31500
1#
1e
1f
0@
#32000
0#
0e
0f
1@
#32500
1#
1e
1f
0@
#33000
0#
0e
0f
1@
#33500
1#
1e
1f
0@
#34000
0#
0e
0f
1@
#34500
1#
1e
1f
0@
#35000
0#
0e
0f
1@
#35500
1#
1e
1f
0@
#36000
0#
0e
0f
1@
#36500
1#
1e
1f
0@
#37000
0#
0e
0f
1@
#37500
1#
1e
1f
0@
#38000
0#
0e
0f
1@
#38500
1#
1e
1f
0@
#39000
0#
0e
0f
1@
#39500
1#
1e
1f
0@
#40000
0#
0e
0f
1@
#40500
1#
1e
1f
0@
#41000
0#
0e
0f
1@
#41500
1#
1e
1f
0@
#42000
0#
0e
0f
1@
#42500
1#
1e
1f
0@
#43000
0#
0e
0f
1@
#43500
1#
1e
1f
0@
#44000
0#
0e
0f
1@
#44500
1#
1e
1f
0@
#45000
0#
0e
0f
1@
#45500
1#
1e
1f
0@
#46000
0#
0e
0f
1@
#46500
1#
1e
1f
0@
#47000
0#
0e
0f
1@
#47500
1#
1e
1f
0@
#48000
0#
0e
0f
1@
#48500
1#
1e
1f
0@
#49000
0#
0e
0f
1@
#49500
1#
1e
1f
0@
#50000
1!
0#
1c
0e
1d
0f
1@
0i
#50500
1#
1e
1f
0@
11"
1l
1j
0g
#51000
0#
0e
0f
1@
#51500
1#
1e
1f
0@
10"
01"
1m
0j
1g
#52000
0#
0e
0f
1@
#52500
1#
1e
1f
0@
11"
1n
0l
1j
0g
1o
#53000
0#
0e
0f
1@
#53500
1#
1e
1f
0@
1/"
00"
01"
1p
0q
0o
0m
0n
0j
1g
1r
1q
1o
0r
#54000
0#
0e
0f
1@
#54500
1#
1e
1f
0@
11"
1l
1j
0g
#55000
0#
0e
0f
1@
#55500
1#
1e
1f
0@
10"
01"
1m
0j
1g
#56000
0#
0e
0f
1@
#56500
1#
1e
1f
0@
11"
1n
0l
1j
0g
0q
0o
1r
#57000
0#
0e
0f
1@
#57500
1#
1e
1f
0@
1."
0/"
00"
01"
1s
1t
0r
0p
1q
1o
0m
0n
0j
1g
1u
0t
1r
0o
0u
#58000
0#
0e
0f
1@
#58500
1#
1e
1f
0@
11"
1l
1j
0g
#59000
0#
0e
0f
1@
#59500
1#
1e
1f
0@
10"
01"
1m
0j
1g
#60000
0#
0e
0f
1@
#60500
1#
1e
1f
0@
11"
1n
0l
1j
0g
1o
#61000
0#
0e
0f
1@
#61500
1#
1e
1f
0@
1/"
00"
01"
1p
0q
0o
0m
0n
0j
1g
1t
0r
1q
1o
1u
0t
1r
0u
#62000
0#
0e
0f
1@
#62500
1#
1e
1f
0@
11"
1l
1j
0g
#63000
0#
0e
0f
1@
#63500
1#
1e
1f
0@
10"
01"
1m
0j
1g
#64000
0#
0e
0f
1@
#64500
1#
1e
1f
0@
11"
1n
0l
1j
0g
0q
0o
1t
0r
1u
#65000
0#
0e
0f
1@
#65500
1#
1e
1f
0@
1-"
0."
0/"
00"
01"
1v
0w
0u
0s
0t
1r
0p
1q
1o
0m
0n
0j
1g
1x
1w
1u
0r
0o
0x
#66000
0#
0e
0f
1@
#66500
1#
1e
1f
0@
11"
1l
1j
0g
#67000
0#
0e
0f
1@
#67500
1#
1e
1f
0@
10"
01"
1m
0j
1g
#68000
0#
0e
0f
1@
#68500
1#
1e
1f
0@
11"
1n
0l
1j
0g
1o
#69000
0#
0e
0f
1@
#69500
1#
1e
1f
0@
1/"
00"
01"
1p
0q
0o
0m
0n
0j
1g
1r
1q
1o
0r
#70000
0#
0e
0f
1@
#70500
1#
1e
1f
0@
11"
1l
1j
0g
#71000
0#
0e
0f
1@
#71500
1#
1e
1f
0@
10"
01"
1m
0j
1g
#72000
0#
0e
0f
1@
#72500
1#
1e
1f
0@
11"
1n
0l
1j
0g
0q
0o
1r
#73000
0#
0e
0f
1@
#73500
1#
1e
1f
0@
1."
0/"
00"
01"
1s
1t
0r
0p
1q
1o
0m
0n
0j
1g
0w
0u
0t
1r
0o
1x
1w
1u
0x
#74000
0#
0e
0f
1@
#74500
1#
1e
1f
0@
11"
1l
1j
0g
#75000
0#
0e
0f
1@
#75500
1#
1e
1f
0@
10"
01"
1m
0j
1g
#76000
0#
0e
0f
1@
#76500
1#
1e
1f
0@
11"
1n
0l
1j
0g
1o
#77000
0#
0e
0f
1@
#77500
1#
1e
1f
0@
1/"
00"
01"
1p
0q
0o
0m
0n
0j
1g
1t
0r
1q
1o
0w
0u
0t
1r
1x
1w
1u
0x
#78000
0#
0e
0f
1@
#78500
1#
1e
1f
0@
11"
1l
1j
0g
#79000
0#
0e
0f
1@
#79500
1#
1e
1f
0@
10"
01"
1m
0j
1g
#80000
0#
0e
0f
1@
#80500
1#
1e
1f
0@
11"
1n
0l
1j
0g
0q
0o
1t
0r
0w
0u
1x
#81000
0#
0e
0f
1@
#81500
1#
1e
1f
0@
1,"
0-"
0."
0/"
00"
01"
1y
1z
0x
0v
1w
1u
0s
0t
1r
0p
1q
1o
0m
0n
0j
1g
1{
0z
1x
0u
0r
0o
0{
#82000
0#
0e
0f
1@
#82500
1#
1e
1f
0@
11"
1l
1j
0g
#83000
0#
0e
0f
1@
#83500
1#
1e
1f
0@
10"
01"
1m
0j
1g
#84000
0#
0e
0f
1@
#84500
1#
1e
1f
0@
11"
1n
0l
1j
0g
1o
#85000
0#
0e
0f
1@
#85500
1#
1e
1f
0@
1/"
00"
01"
1p
0q
0o
0m
0n
0j
1g
1r
1q
1o
0r
#86000
0#
0e
0f
1@
#86500
1#
1e
1f
0@
11"
1l
1j
0g
#87000
0#
0e
0f
1@
#87500
1#
1e
1f
0@
10"
01"
1m
0j
1g
#88000
0#
0e
0f
1@
#88500
1#
1e
1f
0@
11"
1n
0l
1j
0g
0q
0o
1r
#89000
0#
0e
0f
1@
#89500
1#
1e
1f
0@
1."
0/"
00"
01"
1s
1t
0r
0p
1q
1o
0m
0n
0j
1g
1u
0t
1r
0o
0u
#90000
0#
0e
0f
1@
#90500
1#
1e
1f
0@
11"
1l
1j
0g
#91000
0#
0e
0f
1@
#91500
1#
1e
1f
0@
10"
01"
1m
0j
1g
#92000
0#
0e
0f
1@
#92500
1#
1e
1f
0@
11"
1n
0l
1j
0g
1o
#93000
0#
0e
0f
1@
#93500
1#
1e
1f
0@
1/"
00"
01"
1p
0q
0o
0m
0n
0j
1g
1t
0r
1q
1o
1u
0t
1r
0u
#94000
0#
0e
0f
1@
#94500
1#
1e
1f
0@
11"
1l
1j
0g
#95000
0#
0e
0f
1@
#95500
1#
1e
1f
0@
10"
01"
1m
0j
1g
#96000
0#
0e
0f
1@
#96500
1#
1e
1f
0@
11"
1n
0l
1j
0g
0q
0o
1t
0r
1u
#97000
0#
0e
0f
1@
#97500
1#
1e
1f
0@
1-"
0."
0/"
00"
01"
1v
0w
0u
0s
0t
1r
0p
1q
1o
0m
0n
0j
1g
1z
0x
1w
1u
0r
0o
1{
0z
1x
0{
#98000
0#
0e
0f
1@
#98500
1#
1e
1f
0@
11"
1l
1j
0g
#99000
0#
0e
0f
1@
#99500
1#
1e
1f
0@
10"
01"
1m
0j
1g
#100000
0!
0#
0c
0e
0d
0f
1@
1i
00"
0-"
0,"
1s!
1p!
1o!
0m
0l
0v
0u
0y
0x
1H
1K
1L
1>
1;
1:
#100500
1#
1e
1f
0@
#101000
0#
0e
0f
1@
#101500
1#
1e
1f
0@
#102000
0#
0e
0f
1@
#102500
1#
1e
1f
0@
#103000
0#
0e
0f
1@
#103500
1#
1e
1f
0@
#104000
0#
0e
0f
1@
#104500
1#
1e
1f
0@
#105000
0#
0e
0f
1@
#105500
1#
1e
1f
0@
#106000
0#
0e
0f
1@
#106500
1#
1e
1f
0@
#107000
0#
0e
0f
1@
#107500
1#
1e
1f
0@
#108000
0#
0e
0f
1@
#108500
1#
1e
1f
0@
#109000
0#
0e
0f
1@
#109500
1#
1e
1f
0@
#110000
0#
0e
0f
1@
#110500
1#
1e
1f
0@
#111000
0#
0e
0f
1@
#111500
1#
1e
1f
0@
#112000
0#
0e
0f
1@
#112500
1#
1e
1f
0@
#113000
0#
0e
0f
1@
#113500
1#
1e
1f
0@
#114000
0#
0e
0f
1@
#114500
1#
1e
1f
0@
#115000
0#
0e
0f
1@
#115500
1#
1e
1f
0@
#116000
0#
0e
0f
1@
#116500
1#
1e
1f
0@
#117000
0#
0e
0f
1@
#117500
1#
1e
1f
0@
#118000
0#
0e
0f
1@
#118500
1#
1e
1f
0@
#119000
0#
0e
0f
1@
#119500
1#
1e
1f
0@
#120000
0#
0e
0f
1@
#120500
1#
1e
1f
0@
#121000
0#
0e
0f
1@
#121500
1#
1e
1f
0@
#122000
0#
0e
0f
1@
#122500
1#
1e
1f
0@
#123000
0#
0e
0f
1@
#123500
1#
1e
1f
0@
#124000
0#
0e
0f
1@
#124500
1#
1e
1f
0@
#125000
0#
0e
0f
1@
#125500
1#
1e
1f
0@
#126000
0#
0e
0f
1@
#126500
1#
1e
1f
0@
#127000
0#
0e
0f
1@
#127500
1#
1e
1f
0@
#128000
0#
0e
0f
1@
#128500
1#
1e
1f
0@
#129000
0#
0e
0f
1@
#129500
1#
1e
1f
0@
#130000
0#
0e
0f
1@
#130500
1#
1e
1f
0@
#131000
0#
0e
0f
1@
#131500
1#
1e
1f
0@
#132000
0#
0e
0f
1@
#132500
1#
1e
1f
0@
#133000
0#
0e
0f
1@
#133500
1#
1e
1f
0@
#134000
0#
0e
0f
1@
#134500
1#
1e
1f
0@
#135000
0#
0e
0f
1@
#135500
1#
1e
1f
0@
#136000
0#
0e
0f
1@
#136500
1#
1e
1f
0@
#137000
0#
0e
0f
1@
#137500
1#
1e
1f
0@
#138000
0#
0e
0f
1@
#138500
1#
1e
1f
0@
#139000
0#
0e
0f
1@
#139500
1#
1e
1f
0@
#140000
0#
0e
0f
1@
#140500
1#
1e
1f
0@
#141000
0#
0e
0f
1@
#141500
1#
1e
1f
0@
#142000
0#
0e
0f
1@
#142500
1#
1e
1f
0@
#143000
0#
0e
0f
1@
#143500
1#
1e
1f
0@
#144000
0#
0e
0f
1@
#144500
1#
1e
1f
0@
#145000
0#
0e
0f
1@
#145500
1#
1e
1f
0@
#146000
0#
0e
0f
1@
#146500
1#
1e
1f
0@
#147000
0#
0e
0f
1@
#147500
1#
1e
1f
0@
#148000
0#
0e
0f
1@
#148500
1#
1e
1f
0@
#149000
0#
0e
0f
1@
#149500
1#
1e
1f
0@
#150000
1!
0#
1c
0e
1d
0f
1@
0i
#150500
1#
1e
1f
0@
11"
1l
1j
0g
#151000
0#
0e
0f
1@
#151500
1#
1e
1f
0@
10"
01"
1m
0j
1g
#152000
0#
0e
0f
1@
#152500
1#
1e
1f
0@
11"
1n
0l
1j
0g
1o
#153000
0#
0e
0f
1@
#153500
1#
1e
1f
0@
1/"
00"
01"
1p
0q
0o
0m
0n
0j
1g
1r
1q
1o
0r
#154000
0#
0e
0f
1@
#154500
1#
1e
1f
0@
11"
1l
1j
0g
#155000
0#
0e
0f
1@
#155500
1#
1e
1f
0@
10"
01"
1m
0j
1g
#156000
0#
0e
0f
1@
#156500
1#
1e
1f
0@
11"
1n
0l
1j
0g
0q
0o
1r
#157000
0#
0e
0f
1@
#157500
1#
1e
1f
0@
1."
0/"
00"
01"
1s
1t
0r
0p
1q
1o
0m
0n
0j
1g
1u
0t
1r
0o
0u
#158000
0#
0e
0f
1@
#158500
1#
1e
1f
0@
11"
1l
1j
0g
#159000
0#
0e
0f
1@
#159500
1#
1e
1f
0@
10"
01"
1m
0j
1g
#160000
0#
0e
0f
1@
#160500
1#
1e
1f
0@
11"
1n
0l
1j
0g
1o
#161000
0#
0e
0f
1@
#161500
1#
1e
1f
0@
1/"
00"
01"
1p
0q
0o
0m
0n
0j
1g
1t
0r
1q
1o
1u
0t
1r
0u
#162000
0#
0e
0f
1@
#162500
1#
1e
1f
0@
11"
1l
1j
0g
#163000
0#
0e
0f
1@
#163500
1#
1e
1f
0@
10"
01"
1m
0j
1g
#164000
0#
0e
0f
1@
#164500
1#
1e
1f
0@
11"
1n
0l
1j
0g
0q
0o
1t
0r
1u
#165000
0#
0e
0f
1@
#165500
1#
1e
1f
0@
1-"
0."
0/"
00"
01"
1v
0w
0u
0s
0t
1r
0p
1q
1o
0m
0n
0j
1g
1x
1w
1u
0r
0o
0x
#166000
0#
0e
0f
1@
#166500
1#
1e
1f
0@
11"
1l
1j
0g
#167000
0#
0e
0f
1@
#167500
1#
1e
1f
0@
10"
01"
1m
0j
1g
#168000
0#
0e
0f
1@
#168500
1#
1e
1f
0@
11"
1n
0l
1j
0g
1o
#169000
0#
0e
0f
1@
#169500
1#
1e
1f
0@
1/"
00"
01"
1p
0q
0o
0m
0n
0j
1g
1r
1q
1o
0r
#170000
0#
0e
0f
1@
#170500
1#
1e
1f
0@
11"
1l
1j
0g
#171000
0#
0e
0f
1@
#171500
1#
1e
1f
0@
10"
01"
1m
0j
1g
#172000
0#
0e
0f
1@
#172500
1#
1e
1f
0@
11"
1n
0l
1j
0g
0q
0o
1r
#173000
0#
0e
0f
1@
#173500
1#
1e
1f
0@
1."
0/"
00"
01"
1s
1t
0r
0p
1q
1o
0m
0n
0j
1g
0w
0u
0t
1r
0o
1x
1w
1u
0x
#174000
0#
0e
0f
1@
#174500
1#
1e
1f
0@
11"
1l
1j
0g
#175000
0#
0e
0f
1@
#175500
1#
1e
1f
0@
10"
01"
1m
0j
1g
#176000
0#
0e
0f
1@
#176500
1#
1e
1f
0@
11"
1n
0l
1j
0g
1o
#177000
0#
0e
0f
1@
#177500
1#
1e
1f
0@
1/"
00"
01"
1p
0q
0o
0m
0n
0j
1g
1t
0r
1q
1o
0w
0u
0t
1r
1x
1w
1u
0x
#178000
0#
0e
0f
1@
#178500
1#
1e
1f
0@
11"
1l
1j
0g
#179000
0#
0e
0f
1@
#179500
1#
1e
1f
0@
10"
01"
1m
0j
1g
#180000
0#
0e
0f
1@
#180500
1#
1e
1f
0@
11"
1n
0l
1j
0g
0q
0o
1t
0r
0w
0u
1x
#181000
0#
0e
0f
1@
#181500
1#
1e
1f
0@
1,"
0-"
0."
0/"
00"
01"
1y
1z
0x
0v
1w
1u
0s
0t
1r
0p
1q
1o
0m
0n
0j
1g
1{
0z
1x
0u
0r
0o
0{
#182000
0#
0e
0f
1@
#182500
1#
1e
1f
0@
11"
1l
1j
0g
#183000
0#
0e
0f
1@
#183500
1#
1e
1f
0@
10"
01"
1m
0j
1g
#184000
0#
0e
0f
1@
#184500
1#
1e
1f
0@
11"
1n
0l
1j
0g
1o
#185000
0#
0e
0f
1@
#185500
1#
1e
1f
0@
1/"
00"
01"
1p
0q
0o
0m
0n
0j
1g
1r
1q
1o
0r
#186000
0#
0e
0f
1@
#186500
1#
1e
1f
0@
11"
1l
1j
0g
#187000
0#
0e
0f
1@
#187500
1#
1e
1f
0@
10"
01"
1m
0j
1g
#188000
0#
0e
0f
1@
#188500
1#
1e
1f
0@
11"
1n
0l
1j
0g
0q
0o
1r
#189000
0#
0e
0f
1@
#189500
1#
1e
1f
0@
1."
0/"
00"
01"
1s
1t
0r
0p
1q
1o
0m
0n
0j
1g
1u
0t
1r
0o
0u
#190000
0#
0e
0f
1@
#190500
1#
1e
1f
0@
11"
1l
1j
0g
#191000
0#
0e
0f
1@
#191500
1#
1e
1f
0@
10"
01"
1m
0j
1g
#192000
0#
0e
0f
1@
#192500
1#
1e
1f
0@
11"
1n
0l
1j
0g
1o
#193000
0#
0e
0f
1@
#193500
1#
1e
1f
0@
1/"
00"
01"
1p
0q
0o
0m
0n
0j
1g
1t
0r
1q
1o
1u
0t
1r
0u
#194000
0#
0e
0f
1@
#194500
1#
1e
1f
0@
11"
1l
1j
0g
#195000
0#
0e
0f
1@
#195500
1#
1e
1f
0@
10"
01"
1m
0j
1g
#196000
0#
0e
0f
1@
#196500
1#
1e
1f
0@
11"
1n
0l
1j
0g
0q
0o
1t
0r
1u
#197000
0#
0e
0f
1@
#197500
1#
1e
1f
0@
1-"
0."
0/"
00"
01"
1v
0w
0u
0s
0t
1r
0p
1q
1o
0m
0n
0j
1g
1z
0x
1w
1u
0r
0o
1{
0z
1x
0{
#198000
0#
0e
0f
1@
#198500
1#
1e
1f
0@
11"
1l
1j
0g
#199000
0#
0e
0f
1@
#199500
1#
1e
1f
0@
10"
01"
1m
0j
1g
#200000
0!
0#
0c
0e
0d
0f
1@
1i
00"
0-"
0,"
0m
0l
0v
0u
0y
0x
#200500
1#
1e
1f
0@
#201000
0#
0e
0f
1@
#201500
1#
1e
1f
0@
#202000
0#
0e
0f
1@
#202500
1#
1e
1f
0@
#203000
0#
0e
0f
1@
#203500
1#
1e
1f
0@
#204000
0#
0e
0f
1@
#204500
1#
1e
1f
0@
#205000
0#
0e
0f
1@
#205500
1#
1e
1f
0@
#206000
0#
0e
0f
1@
#206500
1#
1e
1f
0@
#207000
0#
0e
0f
1@
#207500
1#
1e
1f
0@
#208000
0#
0e
0f
1@
#208500
1#
1e
1f
0@
#209000
0#
0e
0f
1@
#209500
1#
1e
1f
0@
#210000
0#
0e
0f
1@
#210500
1#
1e
1f
0@
#211000
0#
0e
0f
1@
#211500
1#
1e
1f
0@
#212000
0#
0e
0f
1@
#212500
1#
1e
1f
0@
#213000
0#
0e
0f
1@
#213500
1#
1e
1f
0@
#214000
0#
0e
0f
1@
#214500
1#
1e
1f
0@
#215000
0#
0e
0f
1@
#215500
1#
1e
1f
0@
#216000
0#
0e
0f
1@
#216500
1#
1e
1f
0@
#217000
0#
0e
0f
1@
#217500
1#
1e
1f
0@
#218000
0#
0e
0f
1@
#218500
1#
1e
1f
0@
#219000
0#
0e
0f
1@
#219500
1#
1e
1f
0@
#220000
0#
0e
0f
1@
#220500
1#
1e
1f
0@
#221000
0#
0e
0f
1@
#221500
1#
1e
1f
0@
#222000
0#
0e
0f
1@
#222500
1#
1e
1f
0@
#223000
0#
0e
0f
1@
#223500
1#
1e
1f
0@
#224000
0#
0e
0f
1@
#224500
1#
1e
1f
0@
#225000
0#
0e
0f
1@
#225500
1#
1e
1f
0@
#226000
0#
0e
0f
1@
#226500
1#
1e
1f
0@
#227000
0#
0e
0f
1@
#227500
1#
1e
1f
0@
#228000
0#
0e
0f
1@
